F:\javaStudy\javaproject\ssm- PermissionManagement\ty-auth-parent\service-system\src\main\java\com\ty\ssm\system\Mapper\SysUserMapper.java
F:\javaStudy\javaproject\ssm- PermissionManagement\ty-auth-parent\service-system\src\main\java\com\ty\ssm\system\controller\SysUserRoleController.java
F:\javaStudy\javaproject\ssm- PermissionManagement\ty-auth-parent\service-system\src\main\java\com\ty\ssm\system\service\impl\SysRoleServiceImpl.java
F:\javaStudy\javaproject\ssm- PermissionManagement\ty-auth-parent\service-system\src\main\java\com\ty\ssm\system\controller\SysMenuController.java
F:\javaStudy\javaproject\ssm- PermissionManagement\ty-auth-parent\service-system\src\main\java\com\ty\ssm\system\service\ISysMenuService.java
F:\javaStudy\javaproject\ssm- PermissionManagement\ty-auth-parent\service-system\src\main\java\com\ty\ssm\system\ServiceAuthApplication.java
F:\javaStudy\javaproject\ssm- PermissionManagement\ty-auth-parent\service-system\src\main\java\com\ty\ssm\system\Mapper\SysMenuMapper.java
F:\javaStudy\javaproject\ssm- PermissionManagement\ty-auth-parent\service-system\src\main\java\com\ty\ssm\system\service\impl\SysLoginLogServiceImpl.java
F:\javaStudy\javaproject\ssm- PermissionManagement\ty-auth-parent\service-system\src\main\java\com\ty\ssm\system\service\SysRoleService.java
F:\javaStudy\javaproject\ssm- PermissionManagement\ty-auth-parent\service-system\src\main\java\com\ty\ssm\system\controller\IndexController.java
F:\javaStudy\javaproject\ssm- PermissionManagement\ty-auth-parent\service-system\src\main\java\com\ty\ssm\system\Mapper\SysRoleMapper.java
F:\javaStudy\javaproject\ssm- PermissionManagement\ty-auth-parent\service-system\src\main\java\com\ty\ssm\system\service\impl\SysRoleMenuServiceImpl.java
F:\javaStudy\javaproject\ssm- PermissionManagement\ty-auth-parent\service-system\src\main\java\com\ty\ssm\system\utils\MenuHelper.java
F:\javaStudy\javaproject\ssm- PermissionManagement\ty-auth-parent\service-system\src\main\java\com\ty\ssm\system\service\impl\SysMenuServiceImpl.java
F:\javaStudy\javaproject\ssm- PermissionManagement\ty-auth-parent\service-system\src\main\java\com\ty\ssm\system\Mapper\SysUserRoleMapper.java
F:\javaStudy\javaproject\ssm- PermissionManagement\ty-auth-parent\service-system\src\main\java\com\ty\ssm\system\service\ISysRoleMenuService.java
F:\javaStudy\javaproject\ssm- PermissionManagement\ty-auth-parent\service-system\src\main\java\com\ty\ssm\system\Mapper\SysOperLogMapper.java
F:\javaStudy\javaproject\ssm- PermissionManagement\ty-auth-parent\service-system\src\main\java\com\ty\ssm\system\Mapper\SysRoleMenuMapper.java
F:\javaStudy\javaproject\ssm- PermissionManagement\ty-auth-parent\service-system\src\main\java\com\ty\ssm\system\service\impl\SysUserServiceImpl.java
F:\javaStudy\javaproject\ssm- PermissionManagement\ty-auth-parent\service-system\src\main\java\com\ty\ssm\system\utils\RouteHelp.java
F:\javaStudy\javaproject\ssm- PermissionManagement\ty-auth-parent\service-system\src\main\java\com\ty\ssm\system\service\impl\SysOperLogServiceImpl.java
F:\javaStudy\javaproject\ssm- PermissionManagement\ty-auth-parent\service-system\src\main\java\com\ty\ssm\system\service\ISysUserRoleService.java
F:\javaStudy\javaproject\ssm- PermissionManagement\ty-auth-parent\service-system\src\main\java\com\ty\ssm\system\service\ISysUserService.java
F:\javaStudy\javaproject\ssm- PermissionManagement\ty-auth-parent\service-system\src\main\java\com\ty\ssm\system\controller\SysLoginLogController.java
F:\javaStudy\javaproject\ssm- PermissionManagement\ty-auth-parent\service-system\src\main\java\com\ty\ssm\system\controller\SysRoleMenuController.java
F:\javaStudy\javaproject\ssm- PermissionManagement\ty-auth-parent\service-system\src\main\java\com\ty\ssm\system\controller\SysUserController.java
F:\javaStudy\javaproject\ssm- PermissionManagement\ty-auth-parent\service-system\src\main\java\com\ty\ssm\system\controller\SysRoleController.java
F:\javaStudy\javaproject\ssm- PermissionManagement\ty-auth-parent\service-system\src\main\java\com\ty\ssm\system\Mapper\SysLoginLogMapper.java
F:\javaStudy\javaproject\ssm- PermissionManagement\ty-auth-parent\service-system\src\main\java\com\ty\ssm\system\service\impl\SysUserRoleServiceImpl.java
F:\javaStudy\javaproject\ssm- PermissionManagement\ty-auth-parent\service-system\src\main\java\com\ty\ssm\system\service\impl\UserDetailServiceImpl.java
F:\javaStudy\javaproject\ssm- PermissionManagement\ty-auth-parent\service-system\src\main\java\com\ty\ssm\system\controller\SysOperLogController.java
