F:\javaStudy\javaproject\ssm- PermissionManagement\ty-auth-parent\common\common-log\src\main\java\com\ty\ssm\system\enums\BusinessType.java
F:\javaStudy\javaproject\ssm- PermissionManagement\ty-auth-parent\common\common-log\src\main\java\com\ty\ssm\system\enums\OperatorType.java
F:\javaStudy\javaproject\ssm- PermissionManagement\ty-auth-parent\common\common-log\src\main\java\com\ty\ssm\system\annotation\Log.java
F:\javaStudy\javaproject\ssm- PermissionManagement\ty-auth-parent\common\common-log\src\main\java\com\ty\ssm\system\aspect\OperLogAspect.java
F:\javaStudy\javaproject\ssm- PermissionManagement\ty-auth-parent\common\common-log\src\main\java\com\ty\ssm\system\service\ISysOperLogService.java
